{
  "Quotes": [
    {
      "QuoteId": 1,
      "MinPrice": 119,
      "Direct": true,
      "OutboundLeg": {
        "CarrierIds": [
          1065
        ],
        "OriginId": 65633,
        "DestinationId": 40924,
        "DepartureDate": "2021-05-15T00:00:00"
      },
      "InboundLeg": {
        "CarrierIds": [
          1065
        ],
        "OriginId": 40924,
        "DestinationId": 65633,
        "DepartureDate": "2021-05-25T00:00:00"
      },
      "QuoteDateTime": "2021-01-22T19:13:00"
    },
    {
      "QuoteId": 2,
      "MinPrice": 119,
      "Direct": true,
      "OutboundLeg": {
        "CarrierIds": [
          1065
        ],
        "OriginId": 40979,
        "DestinationId": 73076,
        "DepartureDate": "2021-05-18T00:00:00"
      },
      "InboundLeg": {
        "CarrierIds": [
          1065
        ],
        "OriginId": 73076,
        "DestinationId": 40979,
        "DepartureDate": "2021-05-25T00:00:00"
      },
      "QuoteDateTime": "2021-01-22T15:51:00"
    },
    ...
  ],
  "Carriers": [
    {
      "CarrierId": 1065,
      "Name": "Frontier Airlines"
    },
    {
      "CarrierId": 1467,
      "Name": "Spirit Airlines"
    },
    ...
  ],
  "Places": [
    {
      "Name": "Estados Unidos",
      "Type": "Country",
      "PlaceId": 1811,
      "SkyscannerCode": "US"
    },
    {
      "Name": "Allentown",
      "Type": "Station",
      "PlaceId": 40053,
      "IataCode": "ABE",
      "SkyscannerCode": "ABE",
      "CityName": "Allentown",
      "CityId": "ABEA",
      "CountryName": "Estados Unidos"
    },
    ...
  ],
  "Currencies": [
    {
      "Code": "PEN",
      "Symbol": "S/.",
      "ThousandsSeparator": ".",
      "DecimalSeparator": ".",
      "SymbolOnLeft": true,
      "SpaceBetweenAmountAndSymbol": true,
      "RoundingCoefficient": 0,
      "DecimalDigits": 2
    }
  ]
}
